{
"type": "FeatureCollection",
"name": "centros_medicos_barriales_WGS84",
"crs": { "type": "name", "properties": { "name": "urn:ogc:def:crs:OGC:1.3:CRS84" } },
"features": [
{ "type": "Feature", "properties": { "OBJECTID": 1, "NOMBRE": "CMB N° 2", "DOMICILIO": "1022 LAMARCA EMILIO", "PISO_DTO": null, "TELEFONO": "4672-0744", "AREA_PROG": "ALVAREZ", "REGION_SAN": "II", "COMUNA": "11", "BARRIO": "Villa Santa Rita", "ESPECIALID": "Pediatría, Clínica médica, Tocoginecología.", "Dom_mapa": "Lamarca Emilio 1022", "Dom_geo": "LAMARCA EMILIO 1022", "OBJETO": "CENTRO MÉDICO BARRIAL" }, "geometry": { "type": "Point", "coordinates": [ -58.482986906809259, -34.622156466534634 ] } },
{ "type": "Feature", "properties": { "OBJECTID": 3, "NOMBRE": "CMB N° 4", "DOMICILIO": "801 CARABOBO AV.", "PISO_DTO": null, "TELEFONO": "4632-7525", "AREA_PROG": "PIÑERO", "REGION_SAN": "II", "COMUNA": "07", "BARRIO": "Flores", "ESPECIALID": "Pediatría, Clínica médica, Tocoginecología.", "Dom_mapa": "Carabobo av. 801", "Dom_geo": "CARABOBO AV. 801", "OBJETO": "CENTRO MÉDICO BARRIAL" }, "geometry": { "type": "Point", "coordinates": [ -58.452554255263877, -34.635635287689155 ] } },
{ "type": "Feature", "properties": { "OBJECTID": 4, "NOMBRE": "CMB N° 6", "DOMICILIO": "1936 ESTADOS UNIDOS", "PISO_DTO": "P.B. A", "TELEFONO": "4308-6058", "AREA_PROG": "RAMOS MEJIA", "REGION_SAN": "I", "COMUNA": "03", "BARRIO": "San Cristobal", "ESPECIALID": "Pediatría, Clínica médica, Tocoginecología.", "Dom_mapa": "Estados Unidos 1936", "Dom_geo": "ESTADOS UNIDOS 1936", "OBJETO": "CENTRO MÉDICO BARRIAL" }, "geometry": { "type": "Point", "coordinates": [ -58.393664452694217, -34.619627362707469 ] } },
{ "type": "Feature", "properties": { "OBJECTID": 5, "NOMBRE": "CMB N° 7", "DOMICILIO": "230 MARTINIANO LEGUIZAMÓN", "PISO_DTO": "P.B. 1", "TELEFONO": "4642-5422", "AREA_PROG": "SANTOJANNI", "REGION_SAN": "II", "COMUNA": "09", "BARRIO": "Liniers", "ESPECIALID": "Pediatría, Clínica médica, Tocoginecología.", "Dom_mapa": "Martiniano Leguizamón 230", "Dom_geo": "MARTINIANO LEGUIZAMÓN 230", "OBJETO": "CENTRO MÉDICO BARRIAL" }, "geometry": { "type": "Point", "coordinates": [ -58.51924097214674, -34.641822095585546 ] } },
{ "type": "Feature", "properties": { "OBJECTID": 6, "NOMBRE": "CMB N° 8", "DOMICILIO": "1131 LA CAPITAL", "PISO_DTO": null, "TELEFONO": "4924-0461", "AREA_PROG": "PENNA", "REGION_SAN": "I", "COMUNA": "07", "BARRIO": "Parque Chacabuco", "ESPECIALID": "Pediatría, Clínica médica, Tocoginecología.", "Dom_mapa": "La Capital 1131", "Dom_geo": "LA CAPITAL 1131", "OBJETO": "CENTRO MÉDICO BARRIAL" }, "geometry": { "type": "Point", "coordinates": [ -58.431692157460041, -34.640974479212076 ] } },
{ "type": "Feature", "properties": { "OBJECTID": 7, "NOMBRE": "CMB N° 9", "DOMICILIO": "3512 ALBARIÑO", "PISO_DTO": null, "TELEFONO": "4601-2835", "AREA_PROG": "PIÑERO", "REGION_SAN": "II", "COMUNA": "08", "BARRIO": "Villa Lugano", "ESPECIALID": "Pediatría, Clínica médica, Tocoginecología.", "Dom_mapa": "Albariño 3512", "Dom_geo": "ALBARIÑO 3512", "OBJETO": "CENTRO MÉDICO BARRIAL" }, "geometry": { "type": "Point", "coordinates": [ -58.471348179936193, -34.669841563288131 ] } },
{ "type": "Feature", "properties": { "OBJECTID": 8, "NOMBRE": "CMB N° 10", "DOMICILIO": "612 GARCIA, MARTIN AV.", "PISO_DTO": "P.B. B", "TELEFONO": "4361-8866", "AREA_PROG": "ARGERICH", "REGION_SAN": "I", "COMUNA": "04", "BARRIO": "La Boca", "ESPECIALID": "Pediatría, Clínica médica, Tocoginecología.", "Dom_mapa": "Garcia, Martin Av. 612", "Dom_geo": "GARCIA, MARTIN AV. 612", "OBJETO": "CENTRO MÉDICO BARRIAL" }, "geometry": { "type": "Point", "coordinates": [ -58.372857019220341, -34.631985976212292 ] } },
{ "type": "Feature", "properties": { "OBJECTID": 10, "NOMBRE": "CMB N° 12", "DOMICILIO": "2283 PAEZ", "PISO_DTO": null, "TELEFONO": "4631-8254", "AREA_PROG": "ALVAREZ", "REGION_SAN": "II", "COMUNA": "07", "BARRIO": "Flores", "ESPECIALID": "Pediatría, Clínica médica, Tocoginecología.", "Dom_mapa": "Páez 2283", "Dom_geo": "PAEZ 2283", "OBJETO": "CENTRO MÉDICO BARRIAL" }, "geometry": { "type": "Point", "coordinates": [ -58.465177127910422, -34.61924574326472 ] } },
{ "type": "Feature", "properties": { "OBJECTID": 11, "NOMBRE": "CMB N° 13", "DOMICILIO": "2834 CAMARONES", "PISO_DTO": null, "TELEFONO": "4582-1563", "AREA_PROG": "ALVAREZ", "REGION_SAN": "II", "COMUNA": "11", "BARRIO": "Villa Santa Rita", "ESPECIALID": "Pediatría, Clínica médica, Tocoginecología.", "Dom_mapa": "Camarones 2834", "Dom_geo": "CAMARONES 2834", "OBJETO": "CENTRO MÉDICO BARRIAL" }, "geometry": { "type": "Point", "coordinates": [ -58.479717405979649, -34.612079846271065 ] } },
{ "type": "Feature", "properties": { "OBJECTID": 12, "NOMBRE": "CMB N° 18", "DOMICILIO": "1445 RAMIREZ, CARLOS M.", "PISO_DTO": null, "TELEFONO": "4919-4671", "AREA_PROG": "PENNA", "REGION_SAN": "I", "COMUNA": "04", "BARRIO": "Nueva Pompeya", "ESPECIALID": "Pediatría, Clínica médica, Tocoginecología.", "Dom_mapa": "Ramirez, Carlos M. 1445", "Dom_geo": "RAMIREZ, CARLOS M. 1445", "OBJETO": "CENTRO MÉDICO BARRIAL" }, "geometry": { "type": "Point", "coordinates": [ -58.422797917607845, -34.652668550114043 ] } },
{ "type": "Feature", "properties": { "OBJECTID": 13, "NOMBRE": "CMB N° 19", "DOMICILIO": "2977 COLIHUE", "PISO_DTO": null, "TELEFONO": "4566-8314", "AREA_PROG": "VELEZ SARSFIELD", "REGION_SAN": "III", "COMUNA": "10", "BARRIO": "Villa Real", "ESPECIALID": "Pediatría, Clínica médica, Tocoginecología, Odontología.", "Dom_mapa": "Colihue 2977", "Dom_geo": "COLIHUE 2977", "OBJETO": "CENTRO MÉDICO BARRIAL" }, "geometry": { "type": "Point", "coordinates": [ -58.526714092138207, -34.61362258867436 ] } },
{ "type": "Feature", "properties": { "OBJECTID": 14, "NOMBRE": "CMB N° 20", "DOMICILIO": "1246 ARAUJO", "PISO_DTO": null, "TELEFONO": "4682-1802", "AREA_PROG": "SANTOJANNI", "REGION_SAN": "II", "COMUNA": "09", "BARRIO": "Mataderos", "ESPECIALID": "Pediatría, Clínica médica, Tocoginecología.", "Dom_mapa": "Araujo 1246", "Dom_geo": "ARAUJO 1246", "OBJETO": "CENTRO MÉDICO BARRIAL" }, "geometry": { "type": "Point", "coordinates": [ -58.494358216884194, -34.649339005963832 ] } },
{ "type": "Feature", "properties": { "OBJECTID": 16, "NOMBRE": "CMB N° 23", "DOMICILIO": "251 TEJEDOR", "PISO_DTO": "P.B. 1", "TELEFONO": "4923-8624", "AREA_PROG": "DURAND", "REGION_SAN": "III", "COMUNA": "07", "BARRIO": "Parque Chacabuco", "ESPECIALID": "Pediatría, Clínica médica, Tocoginecología.", "Dom_mapa": "Tejedor 251", "Dom_geo": "TEJEDOR 251", "OBJETO": "CENTRO MÉDICO BARRIAL" }, "geometry": { "type": "Point", "coordinates": [ -58.429741293743341, -34.629768485307558 ] } },
{ "type": "Feature", "properties": { "OBJECTID": 17, "NOMBRE": "CMB N° 24", "DOMICILIO": "2867 BRASIL", "PISO_DTO": null, "TELEFONO": "4941-1385", "AREA_PROG": "PENNA", "REGION_SAN": "I", "COMUNA": "04", "BARRIO": "Parque Patricios", "ESPECIALID": "Pediatría, Clínica médica, Tocoginecología.", "Dom_mapa": "Brasil 2867", "Dom_geo": "BRASIL 2867", "OBJETO": "CENTRO MÉDICO BARRIAL" }, "geometry": { "type": "Point", "coordinates": [ -58.40402120478911, -34.632782101422784 ] } },
{ "type": "Feature", "properties": { "OBJECTID": 18, "NOMBRE": "CMB N° 25", "DOMICILIO": "1375 MARTINEZ CASTRO", "PISO_DTO": null, "TELEFONO": "4637-8831", "AREA_PROG": "PIÑERO", "REGION_SAN": "II", "COMUNA": "09", "BARRIO": "Parque Avellaneda", "ESPECIALID": "Pediatría, Clínica médica, Tocoginecología.", "Dom_mapa": "Martínez Castro 1375", "Dom_geo": "MARTINEZ CASTRO 1375", "OBJETO": "CENTRO MÉDICO BARRIAL" }, "geometry": { "type": "Point", "coordinates": [ -58.468308209714394, -34.647076510371285 ] } },
{ "type": "Feature", "properties": { "OBJECTID": 19, "NOMBRE": "CMB N°26", "DOMICILIO": "2193 GUAYRA", "PISO_DTO": null, "TELEFONO": "4701-6467", "AREA_PROG": "PIROVANO", "REGION_SAN": "IV", "COMUNA": "13", "BARRIO": "Nuñez", "ESPECIALID": "Pediatría, Clínica médica, Tocoginecología.", "Dom_mapa": "Guayra 2193", "Dom_geo": "GUAYRA 2193", "OBJETO": "CENTRO MÉDICO BARRIAL" }, "geometry": { "type": "Point", "coordinates": [ -58.463199016136954, -34.551702208177595 ] } },
{ "type": "Feature", "properties": { "OBJECTID": 20, "NOMBRE": "CMB N° 27", "DOMICILIO": "340 ANTEZANA", "PISO_DTO": null, "TELEFONO": "4854-8737", "AREA_PROG": "DURAND", "REGION_SAN": "III", "COMUNA": "15", "BARRIO": "Villa Crespo", "ESPECIALID": "Pediatría, Clínica médica, Tocoginecología.", "Dom_mapa": "Antezana 340", "Dom_geo": "ANTEZANA 340", "OBJETO": "CENTRO MÉDICO BARRIAL" }, "geometry": { "type": "Point", "coordinates": [ -58.444822825419614, -34.605185779906442 ] } },
{ "type": "Feature", "properties": { "OBJECTID": 21, "NOMBRE": "CMB N° 28", "DOMICILIO": "5567 ECHEANDIA", "PISO_DTO": null, "TELEFONO": "4601-1942", "AREA_PROG": "PIÑERO", "REGION_SAN": "II", "COMUNA": "08", "BARRIO": "Villa Lugano", "ESPECIALID": "Pediatría, Clínica médica, Tocoginecología.", "Dom_mapa": "Echeandia 5567", "Dom_geo": "ECHEANDIA 5567", "OBJETO": "CENTRO MÉDICO BARRIAL" }, "geometry": { "type": "Point", "coordinates": [ -58.484990254904311, -34.665851200487523 ] } },
{ "type": "Feature", "properties": { "OBJECTID": 22, "NOMBRE": "CMB N°29", "DOMICILIO": "205 SAAVEDRA", "PISO_DTO": null, "TELEFONO": "4951-2443", "AREA_PROG": "RAMOS MEJIA", "REGION_SAN": "I", "COMUNA": "03", "BARRIO": "Balvanera", "ESPECIALID": "Pediatría, Clínica médica, Tocoginecología.", "Dom_mapa": "Saavedra 205", "Dom_geo": "SAAVEDRA 205", "OBJETO": "CENTRO MÉDICO BARRIAL" }, "geometry": { "type": "Point", "coordinates": [ -58.403326120301607, -34.612397598372581 ] } },
{ "type": "Feature", "properties": { "OBJECTID": 23, "NOMBRE": "CMB N° 30", "DOMICILIO": "1211 ARZOBISPO ESPINOSA", "PISO_DTO": null, "TELEFONO": "4307-8377", "AREA_PROG": "ARGERICH", "REGION_SAN": "I", "COMUNA": "04", "BARRIO": "Barracas", "ESPECIALID": "Pediatría, Clínica médica, Tocoginecología.", "Dom_mapa": "Arzobispo Espinosa 1211", "Dom_geo": "ARZOBISPO ESPINOSA 1211", "OBJETO": "CENTRO MÉDICO BARRIAL" }, "geometry": { "type": "Point", "coordinates": [ -58.370523380744238, -34.633504174073295 ] } },
{ "type": "Feature", "properties": { "OBJECTID": 25, "NOMBRE": "CMB N° 32", "DOMICILIO": "1198 CALDERON DE LA BARCA, PEDRO", "PISO_DTO": null, "TELEFONO": "4639-6249", "AREA_PROG": "VELEZ SARSFIELD", "REGION_SAN": "III", "COMUNA": "10", "BARRIO": "Velez Sarsfield", "ESPECIALID": "Pediatría, Clínica médica, Tocoginecología, Odontología.", "Dom_mapa": "Calderón de la Barca, Pedro 1198", "Dom_geo": "CALDERON DE LA BARCA, PEDRO 1198", "OBJETO": "CENTRO MÉDICO BARRIAL" }, "geometry": { "type": "Point", "coordinates": [ -58.5040205613833, -34.627994864250873 ] } },
{ "type": "Feature", "properties": { "OBJECTID": 26, "NOMBRE": "CMB N° 33", "DOMICILIO": "4354 CRAMER", "PISO_DTO": null, "TELEFONO": "4702-5661", "AREA_PROG": "PIROVANO", "REGION_SAN": "IV", "COMUNA": "12", "BARRIO": "Saavedra", "ESPECIALID": "Pediatría, Clínica médica, Tocoginecología.", "Dom_mapa": "Cramer 4354", "Dom_geo": "CRAMER 4354", "OBJETO": "CENTRO MÉDICO BARRIAL" }, "geometry": { "type": "Point", "coordinates": [ -58.476641829291886, -34.54478832875192 ] } },
{ "type": "Feature", "properties": { "OBJECTID": 27, "NOMBRE": "CMB N° 35", "DOMICILIO": "2956 CARRIL, SALVADOR MARIA DEL AV.", "PISO_DTO": null, "TELEFONO": "4574-3664", "AREA_PROG": "ZUBIZARRETA", "REGION_SAN": "III", "COMUNA": "15", "BARRIO": "Agronomía", "ESPECIALID": "Pediatría, Clínica médica, Tocoginecología.", "Dom_mapa": "Carril, Salvador María del Av. 2956", "Dom_geo": "CARRIL, SALVADOR MARIA DEL AV. 2956", "OBJETO": "CENTRO MÉDICO BARRIAL" }, "geometry": { "type": "Point", "coordinates": [ -58.498821716464462, -34.591229509487697 ] } },
{ "type": "Feature", "properties": { "OBJECTID": 28, "NOMBRE": "CMB N° 36", "DOMICILIO": "1604 BURELA", "PISO_DTO": null, "TELEFONO": "4524-7685", "AREA_PROG": "TORNU", "REGION_SAN": "III", "COMUNA": "15", "BARRIO": "Parque Chas", "ESPECIALID": "Pediatría, Clínica médica, Tocoginecología.", "Dom_mapa": "Burela 1604", "Dom_geo": "BURELA 1604", "OBJETO": "CENTRO MÉDICO BARRIAL" }, "geometry": { "type": "Point", "coordinates": [ -58.486057606817539, -34.58521253949138 ] } },
{ "type": "Feature", "properties": { "OBJECTID": 29, "NOMBRE": "CMB N° 37", "DOMICILIO": "1492 ISABEL LA CATOLICA", "PISO_DTO": null, "TELEFONO": "4302-6078\r\n", "AREA_PROG": "ARGERICH", "REGION_SAN": "I", "COMUNA": "04", "BARRIO": "Barracas", "ESPECIALID": "Pediatría, Clínica médica, Tocoginecología.", "Dom_mapa": "Isabel la Católica 1492", "Dom_geo": "ISABEL LA CATOLICA 1492", "OBJETO": "CENTRO MÉDICO BARRIAL" }, "geometry": { "type": "Point", "coordinates": [ -58.371794518670065, -34.646189040385913 ] } },
{ "type": "Feature", "properties": { "OBJECTID": 30, "NOMBRE": "CMB N° 38", "DOMICILIO": "1581 MORETO", "PISO_DTO": null, "TELEFONO": "4635-2599\r\n", "AREA_PROG": "PIÑERO", "REGION_SAN": "II", "COMUNA": "09", "BARRIO": "Parque Avellaneda", "ESPECIALID": "Pediatría, Clínica médica, Tocoginecología.", "Dom_mapa": "Moreto 1581", "Dom_geo": "MORETO 1581", "OBJETO": "CENTRO MÉDICO BARRIAL" }, "geometry": { "type": "Point", "coordinates": [ -58.477811305781287, -34.651883800343128 ] } },
{ "type": "Feature", "properties": { "OBJECTID": 31, "NOMBRE": "CMB N° 1", "DOMICILIO": "2479 LAS PALMAS", "PISO_DTO": null, "TELEFONO": "4919-7144", "AREA_PROG": "PENNA", "REGION_SAN": "I", "COMUNA": "04", "BARRIO": "Nueva Pompeya", "ESPECIALID": "Pediatría, Clínica médica, Tocoginecología.", "Dom_mapa": "Las Palmas 2479", "Dom_geo": "LAS PALMAS 2479", "OBJETO": "CENTRO MÉDICO BARRIAL" }, "geometry": { "type": "Point", "coordinates": [ -58.424539556224168, -34.645891328213715 ] } },
{ "type": "Feature", "properties": { "OBJECTID": 32, "NOMBRE": "CMB N° 39", "DOMICILIO": "3395 VARELA", "PISO_DTO": null, "TELEFONO": "4918-5091\r\n", "AREA_PROG": "PIÑERO", "REGION_SAN": "II", "COMUNA": "08", "BARRIO": "Villa Soldati", "ESPECIALID": "Pediatría, Clínica médica, Tocoginecología.", "Dom_mapa": "Varela 3395", "Dom_geo": "VARELA 3395", "OBJETO": "CENTRO MÉDICO BARRIAL" }, "geometry": { "type": "Point", "coordinates": [ -58.433256171088907, -34.660808070848645 ] } },
{ "type": "Feature", "properties": { "OBJECTID": 33, "NOMBRE": "CMB N° 34", "DOMICILIO": "5126 AV. RIVADAVIA", "PISO_DTO": "Piso 4- Dpto 8", "TELEFONO": "4777-2568", "AREA_PROG": "DURAND", "REGION_SAN": "III", "COMUNA": "6", "BARRIO": "Caballito", "ESPECIALID": "Pediatría, Clínica médica, Tocoginecología.", "Dom_mapa": "Av. Rivadavia 5126", "Dom_geo": "AV. RIVADAVIA 5126\r\n", "OBJETO": "CENTRO MÉDICO BARRIAL" }, "geometry": { "type": "Point", "coordinates": [ -58.437929116045979, -34.619161926755424 ] } },
{ "type": "Feature", "properties": { "OBJECTID": 34, "NOMBRE": "CMB N° 5", "DOMICILIO": "4302 NOGOYA", "PISO_DTO": null, "TELEFONO": "4639-5229\r\n", "AREA_PROG": "VELEZ SARSFIELD", "REGION_SAN": "III", "COMUNA": "11", "BARRIO": "Villa Devoto", "ESPECIALID": "Pediatría, Clínica médica, Tocoginecología, Odontología.", "Dom_mapa": "Nogoya 4302", "Dom_geo": "NOGOYA 4302", "OBJETO": "CENTRO MÉDICO BARRIAL" }, "geometry": { "type": "Point", "coordinates": [ -58.505302161834393, -34.611017275206891 ] } },
{ "type": "Feature", "properties": { "OBJECTID": 35, "NOMBRE": "CMB N°17", "DOMICILIO": "3192 MILLER", "PISO_DTO": null, "TELEFONO": "4541-9384\r\n", "AREA_PROG": "PIROVANO", "REGION_SAN": "IV", "COMUNA": "12", "BARRIO": "Villa Urquiza", "ESPECIALID": "Pediatría, Clínica médica, Tocoginecología.", "Dom_mapa": "Miller 3192", "Dom_geo": "MILLER 3192", "OBJETO": "CENTRO MÉDICO BARRIAL" }, "geometry": { "type": "Point", "coordinates": [ -58.486395997771055, -34.565207153453819 ] } }
]
}