{
"type": "FeatureCollection",
"name": "hospitales_gcba_WGS84",
"crs": { "type": "name", "properties": { "name": "urn:ogc:def:crs:OGC:1.3:CRS84" } },
"features": [
{ "type": "Feature", "properties": { "ID": 1.0, "NOMBRE": "HOSPITAL GENERAL DE NIÑOS PEDRO DE ELIZALDE", "NOM_MAP": "HOSP. DE ELIZALDE", "OBJETO": "HOSPITAL", "CALLE": "MANUEL A. MONTES DE OCA", "ALTURA": "40", "DOM_NORMA": "MONTES DE OCA, MANUEL AV. 40", "DOM_GEO": "40 MONTES DE OCA, MANUEL AV.", "TELEFONO": "4307-5842 \/ 5844", "GUARDIA": "4307-5442 \/ 4300-1700", "FAX": "4302-7400", "WEB": "www.elizalde.gov.ar", "COD_POSTAL": "C1270AAN", "TIPO": "Hospital de niños", "TIPO_ESPEC": "PEDIATRIA", "MOD_AT_1": "AT. AMB.\/INTERNACION", "MOD_AT_2": "DIAG.\/TRATAM.", "DEPEND_ADM": "Ministerio de Salud GCBA", "DIRECTOR": "Dr. Javier Indart" }, "geometry": { "type": "Point", "coordinates": [ -58.377550848844308, -34.62884736038815 ] } },
{ "type": "Feature", "properties": { "ID": 2.0, "NOMBRE": "HOSPITAL GENERAL DE NIÑOS RICARDO GUTIERREZ", "NOM_MAP": "HOSP. GUTIERREZ", "OBJETO": "HOSPITAL", "CALLE": "GALLO", "ALTURA": "1330", "DOM_NORMA": "GALLO 1330", "DOM_GEO": "1330 GALLO", "TELEFONO": "4962-9247 \/ 9248 \/ 9280", "GUARDIA": "4962-9232", "FAX": "4962-3762", "WEB": "www.guti.gov.ar", "COD_POSTAL": "C1425EFD", "TIPO": "Hospital de niños", "TIPO_ESPEC": "PEDIATRIA", "MOD_AT_1": "AT. AMB.\/INTERNACION", "MOD_AT_2": "DIAG.\/TRATAM.", "DEPEND_ADM": "Ministerio de Salud GCBA", "DIRECTOR": "Dra. María Cristina Galoppo" }, "geometry": { "type": "Point", "coordinates": [ -58.412070076945632, -34.594191972639294 ] } },
{ "type": "Feature", "properties": { "ID": 4.0, "NOMBRE": "HOSPITAL DE ODONTOLOGIA DR. RAMON CARRILLO (EX NACIONAL)", "NOM_MAP": "HOSP. ODONTOLOGICO CARRILLO", "OBJETO": "HOSPITAL", "CALLE": "SANCHEZ DE BUSTAMANTE", "ALTURA": "2529", "DOM_NORMA": "SANCHEZ DE BUSTAMANTE 2529", "DOM_GEO": "2529 SANCHEZ DE BUSTAMANTE", "TELEFONO": "4805-5521 \/ 7533", "GUARDIA": "4805-6407", "FAX": "4805-7533", "WEB": null, "COD_POSTAL": "C1425DUY", "TIPO": "Hospital especializado", "TIPO_ESPEC": "ODONTOLOGIA", "MOD_AT_1": "AT. AMBULATORIA", "MOD_AT_2": "DIAG.\/TRATAM.", "DEPEND_ADM": "Ministerio de Salud GCBA", "DIRECTOR": "Dra. Susana Rita Lisanti" }, "geometry": { "type": "Point", "coordinates": [ -58.402727654782787, -34.584528335750555 ] } },
{ "type": "Feature", "properties": { "ID": 6.0, "NOMBRE": "HOSPITAL DE SALUD MENTAL BRAULIO MOYANO", "NOM_MAP": "HOSP. MOYANO", "OBJETO": "HOSPITAL", "CALLE": "BRANDSEN", "ALTURA": "2570", "DOM_NORMA": "BRANDSEN 2570", "DOM_GEO": "2570 BRANDSEN", "TELEFONO": "4301-3655 \/ 3659", "GUARDIA": "4301-4522", "FAX": "4303-3655\/59", "WEB": "www.moyano.org.ar", "COD_POSTAL": "C1287ABJ", "TIPO": "Hospital especializado", "TIPO_ESPEC": "SALUD MENTAL", "MOD_AT_1": "AT. AMB.\/INTERNACION", "MOD_AT_2": "DIAG.\/TRATAM.", "DEPEND_ADM": "Ministerio de Salud GCBA", "DIRECTOR": "Dra. Norma Derito" }, "geometry": { "type": "Point", "coordinates": [ -58.385155911888901, -34.639404131648377 ] } },
{ "type": "Feature", "properties": { "ID": 7.0, "NOMBRE": "HOSPITAL DE GASTROENTEROLOGIA B. UDAONDO", "NOM_MAP": "HOSP. UDAONDO", "OBJETO": "HOSPITAL", "CALLE": "CASEROS", "ALTURA": "2061", "DOM_NORMA": "CASEROS AV. 2061", "DOM_GEO": "2061 CASEROS AV.", "TELEFONO": "4306-4641 al 4649", "GUARDIA": "4306-4641 al 49 (int. 125)", "FAX": "4306-3013", "WEB": null, "COD_POSTAL": "C1264AAA", "TIPO": "Hospital especializado", "TIPO_ESPEC": "ENF. APAR. DIGESTIVO", "MOD_AT_1": "AT. AMB.\/INTERNACION", "MOD_AT_2": "DIAG.\/TRATAM.", "DEPEND_ADM": "Ministerio de Salud GCBA", "DIRECTOR": "Dr. Eduardo Gustavo Sosa" }, "geometry": { "type": "Point", "coordinates": [ -58.391311440653482, -34.634153576000188 ] } },
{ "type": "Feature", "properties": { "ID": 8.0, "NOMBRE": "INSTITUTO DE ZOONOSIS L. PASTEUR", "NOM_MAP": "INST. PASTEUR", "OBJETO": "HOSPITAL", "CALLE": "DIAZ VELEZ", "ALTURA": "4821", "DOM_NORMA": "DIAZ VELEZ AV. 4821", "DOM_GEO": "4821 DIAZ VELEZ AV.", "TELEFONO": "4958-9900", "GUARDIA": "4982-8421 \/ 4504 \/ 6666", "FAX": "4983-7300", "WEB": null, "COD_POSTAL": "C1405DCD", "TIPO": "Hospital especializado", "TIPO_ESPEC": "ZOONOSIS", "MOD_AT_1": "AT. AMBULATORIA", "MOD_AT_2": "DIAG.\/TRATAM.", "DEPEND_ADM": "Ministerio de Salud GCBA", "DIRECTOR": "Dr. Oscar Enrique Lencinas" }, "geometry": { "type": "Point", "coordinates": [ -58.43494334798185, -34.608472125741272 ] } },
{ "type": "Feature", "properties": { "ID": 9.0, "NOMBRE": "HOSPITAL DE REHABILITACION RESPIRATORIA MARIA FERRER", "NOM_MAP": "HOSP. FERRER", "OBJETO": "HOSPITAL", "CALLE": "DOCTOR ENRIQUE FINOCHIETTO", "ALTURA": "849", "DOM_NORMA": "FINOCHIETTO ENRIQUE DR. 849", "DOM_GEO": "849 FINOCHIETTO ENRIQUE DR.", "TELEFONO": "4307-1445 \/ 4677 \/ 6777 \/ 6738 \/ 7474", "GUARDIA": "4307-1445 (int. 145)", "FAX": "4307-2567", "WEB": null, "COD_POSTAL": "C1272AAA", "TIPO": "Hospital especializado", "TIPO_ESPEC": "NEUMONOLOGIA", "MOD_AT_1": "AT. AMB.\/INTERNACION", "MOD_AT_2": "DIAG.\/TRATAM.", "DEPEND_ADM": "Ministerio de Salud GCBA", "DIRECTOR": "Dra. Dora Lombardi" }, "geometry": { "type": "Point", "coordinates": [ -58.3758433488021, -34.630211204449473 ] } },
{ "type": "Feature", "properties": { "ID": 10.0, "NOMBRE": "HOSPITAL INFANTO JUVENIL C. TOBAR GARCIA", "NOM_MAP": "HOSP. TOBAR GARCIA", "OBJETO": "HOSPITAL", "CALLE": "DOCTOR RAMON CARRILLO", "ALTURA": "315", "DOM_NORMA": "CARRILLO, RAMON, DR. 315", "DOM_GEO": "315 CARRILLO, RAMON, DR.", "TELEFONO": "4305-6108", "GUARDIA": "4304-6666", "FAX": "4304-4911", "WEB": null, "COD_POSTAL": "C1275AHG", "TIPO": "Hospital especializado", "TIPO_ESPEC": "SALUD MENTAL", "MOD_AT_1": "AT. AMB.\/INTERNACION", "MOD_AT_2": "DIAG.\/TRATAM.", "DEPEND_ADM": "Ministerio de Salud GCBA", "DIRECTOR": "Dr. Guillermo Vega" }, "geometry": { "type": "Point", "coordinates": [ -58.382328450948762, -34.635702235155911 ] } },
{ "type": "Feature", "properties": { "ID": 11.0, "NOMBRE": "HOSPITAL DE SALUD MENTAL J. T. BORDA", "NOM_MAP": "HOSP. BORDA", "OBJETO": "HOSPITAL", "CALLE": "DOCTOR RAMON CARRILLO", "ALTURA": "375", "DOM_NORMA": "CARRILLO, RAMON, DR. 375", "DOM_GEO": "375 CARRILLO, RAMON, DR.", "TELEFONO": "4305-6485", "GUARDIA": "4305-6666 \/ 6485", "FAX": "4304-1200", "WEB": null, "COD_POSTAL": "C1275AHG", "TIPO": "Hospital especializado", "TIPO_ESPEC": "SALUD MENTAL", "MOD_AT_1": "AT. AMB.\/INTERNACION", "MOD_AT_2": "DIAG.\/TRATAM.", "DEPEND_ADM": "Ministerio de Salud GCBA", "DIRECTOR": "Dr. Daniel Cichello" }, "geometry": { "type": "Point", "coordinates": [ -58.382128374695817, -34.636435054656872 ] } },
{ "type": "Feature", "properties": { "ID": 12.0, "NOMBRE": "HOSPITAL DE ODONTOLOGIA INFANTIL DON BENITO QUINQUELA MARTIN", "NOM_MAP": "HOSP. ODONTOLOGICO INFANTIL QUINQUELA MARTIN", "OBJETO": "HOSPITAL", "CALLE": "DON PEDRO DE MENDOZA", "ALTURA": "1795", "DOM_NORMA": "DON PEDRO DE MENDOZA AV. 1795", "DOM_GEO": "1795 DON PEDRO DE MENDOZA AV.", "TELEFONO": "4360- 3900 \/ 4301-4870 \/ 4834 \/ 4302-9492 \/ 9510", "GUARDIA": "4301-4870", "FAX": "4301-4870", "WEB": null, "COD_POSTAL": "C1169AAB", "TIPO": "Hospital especializado", "TIPO_ESPEC": "ODONTOLOGIA", "MOD_AT_1": "AT. AMBULATORIA", "MOD_AT_2": "DIAG.\/TRATAM.", "DEPEND_ADM": "Ministerio de Salud GCBA", "DIRECTOR": "Dra. Scagnet Gabriela" }, "geometry": { "type": "Point", "coordinates": [ -58.360120127145471, -34.638891732083351 ] } },
{ "type": "Feature", "properties": { "ID": 13.0, "NOMBRE": "INSTITUTO DE REHABILITACION PSICOFISICA (I.R.E.P.)", "NOM_MAP": "INST. DE REHAB. PSICOFISICA", "OBJETO": "HOSPITAL", "CALLE": "ECHEVERRIA", "ALTURA": "955", "DOM_NORMA": "ECHEVERRIA 955", "DOM_GEO": "955 ECHEVERRIA", "TELEFONO": "4781-6071 al 74", "GUARDIA": "4784-1225", "FAX": "478-30398", "WEB": null, "COD_POSTAL": "C1428DQG", "TIPO": "Hospital especializado", "TIPO_ESPEC": "MED. FISICA\/REHABILITACION", "MOD_AT_1": "AT. AMB.\/INTERNACION", "MOD_AT_2": "DIAG.\/TRATAM.", "DEPEND_ADM": "Ministerio de Salud GCBA", "DIRECTOR": "Dra. Silvina Ajolfi" }, "geometry": { "type": "Point", "coordinates": [ -58.440988238243882, -34.553896331647266 ] } },
{ "type": "Feature", "properties": { "ID": 14.0, "NOMBRE": "HOSPITAL MATERNO INFANTIL R. SARDA", "NOM_MAP": "HOSP. SARDA", "OBJETO": "HOSPITAL", "CALLE": "ESTEBAN DE LUCA", "ALTURA": "2151", "DOM_NORMA": "LUCA, ESTEBAN DE 2151", "DOM_GEO": "2151 LUCA, ESTEBAN DE", "TELEFONO": "4943-3567", "GUARDIA": "4943-4250", "FAX": "494-34966", "WEB": "www.sarda.org.ar", "COD_POSTAL": "C1246ABQ", "TIPO": "Hospital especializado", "TIPO_ESPEC": "MATERNO-INFANTIL", "MOD_AT_1": "AT. AMB.\/INTERNACION", "MOD_AT_2": "DIAG.\/TRATAM.", "DEPEND_ADM": "Ministerio de Salud GCBA", "DIRECTOR": "Dr. Eduardo Valenti" }, "geometry": { "type": "Point", "coordinates": [ -58.402750627537664, -34.634856308414967 ] } },
{ "type": "Feature", "properties": { "ID": 15.0, "NOMBRE": "HOSPITAL OFTALMOLOGICO DR. PEDRO LAGLEYZE", "NOM_MAP": "HOSP. LAGLEYZE", "OBJETO": "HOSPITAL", "CALLE": "JUAN B. JUSTO", "ALTURA": "4151", "DOM_NORMA": "JUSTO, JUAN B. AV. 4151", "DOM_GEO": "4151 JUSTO, JUAN B. AV.", "TELEFONO": "4582-1278 \/ 4581-7766 \/ 0645", "GUARDIA": "4581-0645 \/ 7766 \/ 2792  4582-8235 \/ 1278 (int. 108)", "FAX": "4582-1278", "WEB": null, "COD_POSTAL": "C1416DJI", "TIPO": "Hospital especializado", "TIPO_ESPEC": "OFTALMOLOGIA", "MOD_AT_1": "AT. AMB.\/INTERNACION", "MOD_AT_2": "DIAG.\/TRATAM.", "DEPEND_ADM": "Ministerio de Salud GCBA", "DIRECTOR": "Dr. Fernando Scattini" }, "geometry": { "type": "Point", "coordinates": [ -58.460185577552785, -34.605434275020741 ] } },
{ "type": "Feature", "properties": { "ID": 16.0, "NOMBRE": "HOSPITAL DE ODONTOLOGIA  JOSE DUEÑAS", "NOM_MAP": "HOSP. ODONTOLOGICO DUEÑAS", "OBJETO": "HOSPITAL", "CALLE": "MUÑIZ", "ALTURA": "15", "DOM_NORMA": "MUÑIZ 15", "DOM_GEO": "15 MUÑIZ", "TELEFONO": "4983-0392 \/ 4983-8983", "GUARDIA": "4983-0392 \/ 4983-8983", "FAX": "4983-0688", "WEB": null, "COD_POSTAL": "C1212AAA", "TIPO": "Hospital especializado", "TIPO_ESPEC": "ODONTOLOGIA", "MOD_AT_1": "AT. AMBULATORIA", "MOD_AT_2": "DIAGNOSTICO", "DEPEND_ADM": "Ministerio de Salud GCBA", "DIRECTOR": "Dra. Ada Severino" }, "geometry": { "type": "Point", "coordinates": [ -58.427659754283688, -34.614634834842903 ] } },
{ "type": "Feature", "properties": { "ID": 17.0, "NOMBRE": "HOSPITAL MUNICIPAL DE ONCOLOGIA MARIE CURIE", "NOM_MAP": "HOSP. CURIE", "OBJETO": "HOSPITAL", "CALLE": "PATRICIAS ARGENTINAS", "ALTURA": "150", "DOM_NORMA": "PATRICIAS ARGENTINAS AV. 150", "DOM_GEO": "150  PATRICIAS ARGENTINAS AV.", "TELEFONO": "4982-1731 \/ 1831", "GUARDIA": "4982-1731 \/ 1831 \/ 5744", "FAX": "4982-3972", "WEB": null, "COD_POSTAL": "C1405BWU", "TIPO": "Hospital especializado", "TIPO_ESPEC": "ONCOLOGIA", "MOD_AT_1": "AT. AMB.\/INTERNACION", "MOD_AT_2": "DIAG.\/TRATAM.", "DEPEND_ADM": "Ministerio de Salud GCBA", "DIRECTOR": "Dr. Alejandro Fernández" }, "geometry": { "type": "Point", "coordinates": [ -58.433248438129482, -34.607050760386642 ] } },
{ "type": "Feature", "properties": { "ID": 18.0, "NOMBRE": "HOSPITAL DE QUEMADOS DR. ARTURO UMBERTO ILLIA", "NOM_MAP": "HOSP. DE QUEMADOS A. U. ILLIA", "OBJETO": "HOSPITAL", "CALLE": "PEDRO GOYENA", "ALTURA": "369", "DOM_NORMA": "GOYENA, PEDRO AV. 369", "DOM_GEO": "369 GOYENA, PEDRO AV.", "TELEFONO": "4923-3022", "GUARDIA": "4923-4082 \/ 4923-3022", "FAX": "4925-3557", "WEB": "www.buenosaires.gov.ar\/areas\/salud\/hospital_quemados\/?menu_id=24263", "COD_POSTAL": "C1424BSD", "TIPO": "Hospital especializado", "TIPO_ESPEC": "QUEMADOS", "MOD_AT_1": "AT. AMB.\/INTERNACION", "MOD_AT_2": "DIAG.\/TRATAM.", "DEPEND_ADM": "Ministerio de Salud GCBA", "DIRECTOR": "Dr. Armando Escobar" }, "geometry": { "type": "Point", "coordinates": [ -58.432396695024352, -34.625503195248271 ] } },
{ "type": "Feature", "properties": { "ID": 19.0, "NOMBRE": "HOSPITAL DE OFTALMOLOGIA SANTA LUCIA", "NOM_MAP": "HOSP. SANTA LUCIA", "OBJETO": "HOSPITAL", "CALLE": "SAN JUAN", "ALTURA": "2021", "DOM_NORMA": "SAN JUAN AV. 2021", "DOM_GEO": "2021 SAN JUAN AV.", "TELEFONO": "4127-3100 \/ 4941-5555", "GUARDIA": "4941- 8081", "FAX": "4941-7077", "WEB": "www.hospitalsantalucia.com.ar", "COD_POSTAL": "C1232AAC", "TIPO": "Hospital especializado", "TIPO_ESPEC": "OFTALMOLOGIA", "MOD_AT_1": "AT. AMB.\/INTERNACION", "MOD_AT_2": "DIAG.\/TRATAM.", "DEPEND_ADM": "Ministerio de Salud GCBA", "DIRECTOR": "Dra. Estela Fernández Rey" }, "geometry": { "type": "Point", "coordinates": [ -58.394064160474649, -34.622712507512453 ] } },
{ "type": "Feature", "properties": { "ID": 20.0, "NOMBRE": "HOSPITAL DE REHABILITACION M. ROCCA", "NOM_MAP": "HOSP. DE REHAB. ROCCA", "OBJETO": "HOSPITAL", "CALLE": "SEGUROLA", "ALTURA": "1949", "DOM_NORMA": "SEGUROLA AV. 1949", "DOM_GEO": "1949 SEGUROLA AV.", "TELEFONO": "4630-4700 \/ 4800", "GUARDIA": "4630-4741 \/ 4742", "FAX": "4566-4206", "WEB": null, "COD_POSTAL": "C1407AOM", "TIPO": "Hospital especializado", "TIPO_ESPEC": "MED. FISICA\/REHABILITACION", "MOD_AT_1": "AT. AMB.\/INTERNACION", "MOD_AT_2": "DIAG.\/TRATAM.", "DEPEND_ADM": "Ministerio de Salud GCBA", "DIRECTOR": "Dr. Cichero Carlos" }, "geometry": { "type": "Point", "coordinates": [ -58.502144922222243, -34.617981754059123 ] } },
{ "type": "Feature", "properties": { "ID": 21.0, "NOMBRE": "HOSPITAL DE INFECCIOSAS F. MUÑIZ", "NOM_MAP": "HOSP. MUÑIZ", "OBJETO": "HOSPITAL", "CALLE": "USPALLATA", "ALTURA": "2272", "DOM_NORMA": "USPALLATA 2272", "DOM_GEO": "2272 USPALLATA", "TELEFONO": "4304-2180 \/ 3380 \/ 4306-7855", "GUARDIA": "4304-5555 \/ 4304-3380 \/ 2946 (int. 213)", "FAX": "4304-2386", "WEB": null, "COD_POSTAL": "C1282AEN", "TIPO": "Hospital especializado", "TIPO_ESPEC": "INFECTOLOGIA", "MOD_AT_1": "AT. AMB.\/INTERNACION", "MOD_AT_2": "DIAG.\/TRATAM.", "DEPEND_ADM": "Ministerio de Salud GCBA", "DIRECTOR": "Dr. González Montaner Pablo" }, "geometry": { "type": "Point", "coordinates": [ -58.393726941322541, -34.637529325841562 ] } },
{ "type": "Feature", "properties": { "ID": 22.0, "NOMBRE": "HOSPITAL DE EMERGENCIAS PSIQUIATRICAS TORCUATO DE ALVEAR", "NOM_MAP": "HOSP. T. DE ALVEAR", "OBJETO": "HOSPITAL", "CALLE": "WARNES", "ALTURA": "2630", "DOM_NORMA": "WARNES AV. 2630", "DOM_GEO": "2630 WARNES AV.", "TELEFONO": "4521-0273 \/ 0090 \/ 0983", "GUARDIA": "4521-5555 \/ 5934", "FAX": "4521-2537", "WEB": null, "COD_POSTAL": "C1427DPS", "TIPO": "Hospital especializado", "TIPO_ESPEC": "SALUD MENTAL", "MOD_AT_1": "AT. AMB.\/INTERNACION", "MOD_AT_2": "DIAGNOSTICO", "DEPEND_ADM": "Ministerio de Salud GCBA", "DIRECTOR": "Dr. Marcelo Ernesto Lahitou" }, "geometry": { "type": "Point", "coordinates": [ -58.475258845976136, -34.597209872915172 ] } },
{ "type": "Feature", "properties": { "ID": 23.0, "NOMBRE": "HOSPITAL GENERAL DE AGUDOS B. RIVADAVIA", "NOM_MAP": "HOSP. RIVADAVIA", "OBJETO": "HOSPITAL", "CALLE": "GENERAL LAS HERAS", "ALTURA": "2670", "DOM_NORMA": "LAS HERAS GENERAL AV. 2670", "DOM_GEO": "2670 LAS HERAS GENERAL AV.", "TELEFONO": "4809-2000", "GUARDIA": "4809-2002 \/ 2340", "FAX": "4802-2721", "WEB": "www.buenosaires.gov.ar\/areas\/salud\/rivadavia", "COD_POSTAL": "C1425ASQ", "TIPO": "Hospital de agudos", "TIPO_ESPEC": "GRAL: BAS\/CRIT\/OTR", "MOD_AT_1": "AT. AMB.\/INTERNACION", "MOD_AT_2": "DIAG.\/TRATAM.", "DEPEND_ADM": "Ministerio de Salud GCBA", "DIRECTOR": "Dr. Eduardo Fernández Rostello" }, "geometry": { "type": "Point", "coordinates": [ -58.400513457442273, -34.58476595812138 ] } },
{ "type": "Feature", "properties": { "ID": 24.0, "NOMBRE": "HOSPITAL GENERAL DE AGUDOS DR C. ARGERICH", "NOM_MAP": "HOSP. ARGERICH", "OBJETO": "HOSPITAL", "CALLE": "CORBETA PI Y MARGAL", "ALTURA": "750", "DOM_NORMA": "PI Y MARGALL 750", "DOM_GEO": "750 PI Y MARGALL", "TELEFONO": "4121-0700 \/ 0800", "GUARDIA": "4121-0683", "FAX": "4362-2621", "WEB": null, "COD_POSTAL": "C1155AHD", "TIPO": "Hospital de agudos", "TIPO_ESPEC": "GRAL: BAS\/CRIT\/OTR", "MOD_AT_1": "AT. AMB.\/INTERNACION", "MOD_AT_2": "DIAG.\/TRATAM.", "DEPEND_ADM": "Ministerio de Salud GCBA", "DIRECTOR": "Dr. Néstor Hernández" }, "geometry": { "type": "Point", "coordinates": [ -58.365985088719015, -34.628344858167651 ] } },
{ "type": "Feature", "properties": { "ID": 25.0, "NOMBRE": "HOSPITAL GENERAL DE AGUDOS DR. J. A. FERNANDEZ", "NOM_MAP": "HOSP. FERNANDEZ", "OBJETO": "HOSPITAL", "CALLE": "CERVIÑO", "ALTURA": "3356", "DOM_NORMA": "CERVIÑO AV. 3356", "DOM_GEO": "3356 CERVIÑO AV.", "TELEFONO": "4808-2600", "GUARDIA": "4808-5555 \/ 2600 \/ 2650 \/ 2640", "FAX": "4801-0932", "WEB": null, "COD_POSTAL": "C1425AGP", "TIPO": "Hospital de agudos", "TIPO_ESPEC": "GRAL: BAS\/CRIT\/OTR", "MOD_AT_1": "AT. AMB.\/INTERNACION", "MOD_AT_2": "DIAG.\/TRATAM.", "DEPEND_ADM": "Ministerio de Salud GCBA", "DIRECTOR": "Dr. Previgliano Ignacio" }, "geometry": { "type": "Point", "coordinates": [ -58.406893914278655, -34.581141710888993 ] } },
{ "type": "Feature", "properties": { "ID": 26.0, "NOMBRE": "HOSPITAL GENERAL DE AGUDOS DR. C. DURAND", "NOM_MAP": "HOSP. DURAND", "OBJETO": "HOSPITAL", "CALLE": "DIAZ VELEZ", "ALTURA": "5044", "DOM_NORMA": "DIAZ VELEZ AV. 5044", "DOM_GEO": "5044 DIAZ VELEZ AV.", "TELEFONO": "4982-5555 \/ 4982-5655 Conmutador 4982-1050 \/ 4981-2670", "GUARDIA": "4982-1771 \/ 4982-5555 \/ 4981-2790", "FAX": "4982-2677", "WEB": "www.hospitaldurand.org.ar", "COD_POSTAL": "C1405DCS", "TIPO": "Hospital de agudos", "TIPO_ESPEC": "GRAL: BAS\/CRIT\/OTR", "MOD_AT_1": "AT. AMB.\/INTERNACION", "MOD_AT_2": "DIAG.\/TRATAM.", "DEPEND_ADM": "Ministerio de Salud GCBA", "DIRECTOR": "Dr. Bolla Horacio Alberto" }, "geometry": { "type": "Point", "coordinates": [ -58.437981361705027, -34.608972853841443 ] } },
{ "type": "Feature", "properties": { "ID": 27.0, "NOMBRE": "HOSPITAL GENERAL DE AGUDOS DR. T. ALVAREZ", "NOM_MAP": "HOSP. ALVAREZ", "OBJETO": "HOSPITAL", "CALLE": "DOCTOR JUAN FELIPE ARANGUREN", "ALTURA": "2701", "DOM_NORMA": "ARANGUREN, JUAN F., DR. 2701", "DOM_GEO": "2701 ARANGUREN, JUAN F., DR.", "TELEFONO": "4611-6666 \/ 4630-2900", "GUARDIA": "4611-6666 (int. 2111 y 2948)", "FAX": "4612-5073", "WEB": null, "COD_POSTAL": "C1406FWY", "TIPO": "Hospital de agudos", "TIPO_ESPEC": "GRAL: BAS\/CRIT\/OTR", "MOD_AT_1": "AT. AMB.\/INTERNACION", "MOD_AT_2": "DIAG.\/TRATAM.", "DEPEND_ADM": "Ministerio de Salud GCBA", "DIRECTOR": "Dra. Laura Cordero" }, "geometry": { "type": "Point", "coordinates": [ -58.469502036326517, -34.624170494011416 ] } },
{ "type": "Feature", "properties": { "ID": 28.0, "NOMBRE": "HOSPITAL GENERAL DE AGUDOS J. M. RAMOS MEJIA", "NOM_MAP": "HOSP. RAMOS MEJIA", "OBJETO": "HOSPITAL", "CALLE": "GENERAL URQUIZA", "ALTURA": "609", "DOM_NORMA": "URQUIZA, GRAL. 609", "DOM_GEO": "609 URQUIZA, GRAL.", "TELEFONO": "4127-0200 \/ 300", "GUARDIA": "4127-0400", "FAX": "4932-8858", "WEB": "www.hospitalramosmejia.info", "COD_POSTAL": "C1221ADC", "TIPO": "Hospital de agudos", "TIPO_ESPEC": "GRAL: BAS\/CRIT\/OTR", "MOD_AT_1": "AT. AMB.\/INTERNACION", "MOD_AT_2": "DIAG.\/TRATAM.", "DEPEND_ADM": "Ministerio de Salud GCBA", "DIRECTOR": "Dr. Hugo Pandullo" }, "geometry": { "type": "Point", "coordinates": [ -58.409610748815545, -34.617659843860679 ] } },
{ "type": "Feature", "properties": { "ID": 29.0, "NOMBRE": "HOSPITAL GENERAL DE AGUDOS DR. I. PIROVANO", "NOM_MAP": "HOSP. PIROVANO", "OBJETO": "HOSPITAL", "CALLE": "MONROE", "ALTURA": "3555", "DOM_NORMA": "MONROE AV. 3555", "DOM_GEO": "3555 MONROE AV.", "TELEFONO": "4123-3100", "GUARDIA": "4542-5552 \/ 2772 \/ 9279", "FAX": "4543-2199", "WEB": null, "COD_POSTAL": "C1430BKC", "TIPO": "Hospital de agudos", "TIPO_ESPEC": "GRAL: BAS\/CRIT\/OTR", "MOD_AT_1": "AT. AMB.\/INTERNACION", "MOD_AT_2": "DIAG.\/TRATAM.", "DEPEND_ADM": "Ministerio de Salud GCBA", "DIRECTOR": "Dr. José Antonio Cuba" }, "geometry": { "type": "Point", "coordinates": [ -58.471078159325053, -34.565051956567999 ] } },
{ "type": "Feature", "properties": { "ID": 30.0, "NOMBRE": "HOSPITAL GENERAL DE AGUDOS A. ZUBIZARRETA", "NOM_MAP": "HOSP. ZUBIZARRETA", "OBJETO": "HOSPITAL", "CALLE": "NUEVA YORK", "ALTURA": "3952", "DOM_NORMA": "NUEVA YORK 3952", "DOM_GEO": "3952 NUEVA YORK", "TELEFONO": "4501-5985 \/ 0683", "GUARDIA": "4501-5555 \/ 0683 \/ 5985", "FAX": "4501-2604", "WEB": "www.zubizarreta.org.ar", "COD_POSTAL": "C1419HDN", "TIPO": "Hospital de agudos", "TIPO_ESPEC": "GRAL: BAS\/CRIT\/OTR", "MOD_AT_1": "AT. AMB.\/INTERNACION", "MOD_AT_2": "DIAG.\/TRATAM.", "DEPEND_ADM": "Ministerio de Salud GCBA", "DIRECTOR": "Dra. Lilia Borelli" }, "geometry": { "type": "Point", "coordinates": [ -58.511052500056884, -34.599979524264043 ] } },
{ "type": "Feature", "properties": { "ID": 31.0, "NOMBRE": "HOSPITAL GENERAL DE AGUDOS D. VELEZ SARSFIELD", "NOM_MAP": "HOSP. VELEZ SARSFIELD", "OBJETO": "HOSPITAL", "CALLE": "PEDRO CALDERON DE LA BARCA", "ALTURA": "1550", "DOM_NORMA": "CALDERON DE LA BARCA, PEDRO 1550", "DOM_GEO": "1550 CALDERON DE LA BARCA, PEDRO", "TELEFONO": "4639-8700 al 05", "GUARDIA": "4639-8700 (int. 342)", "FAX": "4566-9590", "WEB": "www.hospitalvelez.org.ar", "COD_POSTAL": "C1407KQF", "TIPO": "Hospital de agudos", "TIPO_ESPEC": "GRAL: BAS\/CRIT\/OTR", "MOD_AT_1": "AT. AMB.\/INTERNACION", "MOD_AT_2": "DIAG.\/TRATAM.", "DEPEND_ADM": "Ministerio de Salud GCBA", "DIRECTOR": "Dra. Virginia Lombardo" }, "geometry": { "type": "Point", "coordinates": [ -58.507615140919953, -34.625336795266833 ] } },
{ "type": "Feature", "properties": { "ID": 32.0, "NOMBRE": "HOSPITAL GENERAL DE AGUDOS DONACION F. SANTOJANNI", "NOM_MAP": "HOSP. SANTOJANNI", "OBJETO": "HOSPITAL", "CALLE": "PILAR", "ALTURA": "950", "DOM_NORMA": "PILAR 950", "DOM_GEO": "950 PILAR", "TELEFONO": "4630-5500 \/ 5509", "GUARDIA": "4630-5673 \/ 5606 \/ 5536", "FAX": "4641-3359", "WEB": "www.hospitalsantojanni.gov.ar", "COD_POSTAL": "C1408INH", "TIPO": "Hospital de agudos", "TIPO_ESPEC": "GRAL: BAS\/CRIT\/OTR", "MOD_AT_1": "AT. AMB.\/INTERNACION", "MOD_AT_2": "DIAG.\/TRATAM.", "DEPEND_ADM": "Ministerio de Salud GCBA", "DIRECTOR": "Dr. Federico Charabora" }, "geometry": { "type": "Point", "coordinates": [ -58.515629193670875, -34.649186728106386 ] } },
{ "type": "Feature", "properties": { "ID": 33.0, "NOMBRE": "HOSPITAL GENERAL DE AGUDOS J. A. PENNA", "NOM_MAP": "HOSP. PENNA", "OBJETO": "HOSPITAL", "CALLE": "PEDRO CHUTRO", "ALTURA": "3380", "DOM_NORMA": "CHUTRO, PEDRO, PROF., DR. 3380", "DOM_GEO": "3380 CHUTRO, PEDRO, PROF., DR.", "TELEFONO": "4912-1085", "GUARDIA": "4911-5555 \/ 3030 (int. 230\/268)", "FAX": "4911-7222", "WEB": null, "COD_POSTAL": "C1437JLR", "TIPO": "Hospital de agudos", "TIPO_ESPEC": "GRAL: BAS\/CRIT\/OTR", "MOD_AT_1": "AT. AMB.\/INTERNACION", "MOD_AT_2": "DIAG.\/TRATAM.", "DEPEND_ADM": "Ministerio de Salud GCBA", "DIRECTOR": "Dr. Gustavo San Martín" }, "geometry": { "type": "Point", "coordinates": [ -58.410860218829143, -34.643117259197524 ] } },
{ "type": "Feature", "properties": { "ID": 34.0, "NOMBRE": "HOSPITAL GENERAL DE AGUDOS DR. E. TORNU", "NOM_MAP": "HOSP. TORNU", "OBJETO": "HOSPITAL", "CALLE": "COMBATIENTES DE MALVINAS", "ALTURA": "3002", "DOM_NORMA": "COMBATIENTES DE MALVINAS AV. 3002", "DOM_GEO": "3002 COMBATIENTES DE MALVINAS AV.", "TELEFONO": "4521-3600 \/ 1236 \/ 8700", "GUARDIA": "4521-6666", "FAX": "4521-6677", "WEB": null, "COD_POSTAL": "C1427ARN", "TIPO": "Hospital de agudos", "TIPO_ESPEC": "GRAL: BAS\/CRIT\/OTR", "MOD_AT_1": "AT. AMB.\/INTERNACION", "MOD_AT_2": "DIAG.\/TRATAM.", "DEPEND_ADM": "Ministerio de Salud GCBA", "DIRECTOR": "Dr. Luis Eduardo Castañiza" }, "geometry": { "type": "Point", "coordinates": [ -58.471097628216803, -34.587391769022666 ] } },
{ "type": "Feature", "properties": { "ID": 35.0, "NOMBRE": "HOSPITAL GENERAL DE AGUDOS P. PIÑERO", "NOM_MAP": "HOSP. PIÑERO", "OBJETO": "HOSPITAL", "CALLE": "VARELA", "ALTURA": "1301", "DOM_NORMA": "VARELA AV. 1301", "DOM_GEO": "1301 VARELA AV.", "TELEFONO": "4631-8100 \/ 0526", "GUARDIA": "4631-8601", "FAX": "4632-8626", "WEB": null, "COD_POSTAL": "C1406ELA", "TIPO": "Hospital de agudos", "TIPO_ESPEC": "GRAL: BAS\/CRIT\/OTR", "MOD_AT_1": "AT. AMB.\/INTERNACION", "MOD_AT_2": "DIAG.\/TRATAM.", "DEPEND_ADM": "Ministerio de Salud GCBA", "DIRECTOR": "Dr. Rivero Marino Daniel" }, "geometry": { "type": "Point", "coordinates": [ -58.454116781471413, -34.643894071865965 ] } },
{ "type": "Feature", "properties": { "ID": 36.0, "NOMBRE": "HOSPITAL CECILIA GRIERSON", "NOM_MAP": "HOSP. GRIERSON", "OBJETO": "HOSPITAL", "CALLE": "FERNANDEZ DE LA CRUZ, F., GRAL. AV. 4402", "ALTURA": "4402", "DOM_NORMA": "FERNANDEZ DE LA CRUZ, F., GRAL. 4402", "DOM_GEO": "4402 FERNANDEZ DE LA CRUZ, F., GRAL.", "TELEFONO": "4604-9000", "GUARDIA": null, "FAX": null, "WEB": null, "COD_POSTAL": "C1439CNU", "TIPO": "Hospital especializado", "TIPO_ESPEC": null, "MOD_AT_1": null, "MOD_AT_2": null, "DEPEND_ADM": "Ministerio de Salud GCBA", "DIRECTOR": "Dr. Luis Giardino" }, "geometry": { "type": "Point", "coordinates": [ -58.456642849110352, -34.67184801407717 ] } },
{ "type": "Feature", "properties": { "ID": 3.0, "NOMBRE": "HOSP. DE PEDIATRIA DR. J. GARRAHAN", "NOM_MAP": "HOSP. GARRAHAN", "OBJETO": "HOSPITAL", "CALLE": "COMBATE DE LOS POZOS", "ALTURA": "1881", "DOM_NORMA": "COMBATE DE LOS POZOS 1881", "DOM_GEO": "1881 COMBATE DE LOS POZOS", "TELEFONO": "4941-8772 \/ 4942-7475\n", "GUARDIA": "4941-8702", "FAX": "4941-8532", "WEB": "www.garrahan.gov.ar", "COD_POSTAL": "C1245AAM", "TIPO": "Hospital de niños", "TIPO_ESPEC": "PEDIATRIA", "MOD_AT_1": "AT. AMB.\/INTERNACION", "MOD_AT_2": "DIAG.\/TRATAM.", "DEPEND_ADM": "Ministerio de Salud GCBA", "DIRECTOR": "Dr. Luis Dal Bo" }, "geometry": { "type": "Point", "coordinates": [ -58.391879181388248, -34.62994536144042 ] } },
{ "type": "Feature", "properties": { "ID": 5.0, "NOMBRE": "TALLERES PROTEGIDOS DE REHABILITACION PSIQUIATRICA", "NOM_MAP": "TALLERES DE REHAB. PSIQUIATRICA", "OBJETO": "HOSPITAL", "CALLE": "SUAREZ", "ALTURA": "2215", "DOM_NORMA": "SUAREZ AV. 2215", "DOM_GEO": "2215 SUAREZ AV.", "TELEFONO": "4301-3961", "GUARDIA": null, "FAX": "4302-9160", "WEB": null, "COD_POSTAL": "C1284AGA", "TIPO": "Hospital especializado", "TIPO_ESPEC": "SALUD MENTAL", "MOD_AT_1": "AT. AMBULATORIA", "MOD_AT_2": "DIAGNOSTICO", "DEPEND_ADM": "Ministerio de Salud GCBA", "DIRECTOR": "Dra. Graciela María Ana Russo" }, "geometry": { "type": "Point", "coordinates": [ -58.381429338189051, -34.641988801492822 ] } }
]
}